An Introduction to R
…
df <- palmerpenguins::penguins %>%
  mutate(
    flipper_length_2 = flipper_length_mm^2, # 羽根の長さの2乗
    weight_size = if_else(condition = body_mass_g >= 4050, true = "L", false = "F"),
    flipper_size_3 = case_when(
      body_mass_g <= 3550 ~ "S",
      body_mass_g >= 3550 & body_mass_g <= 4750 ~ "M",
      TRUE ~ "L" # TRUE はそれ以外
    )
  )

作成した変数を確認

## # A tibble: 344 x 6
##    species island    body_mass_g flipper_length_2 weight_size flipper_size_3
##    <fct>   <fct>           <int>            <dbl> <chr>       <chr>         
##  1 Adelie  Torgersen        3750            32761 F           M             
##  2 Adelie  Torgersen        3800            34596 F           M             
##  3 Adelie  Torgersen        3250            38025 F           S             
##  4 Adelie  Torgersen          NA               NA <NA>        L             
##  5 Adelie  Torgersen        3450            37249 F           S             
##  6 Adelie  Torgersen        3650            36100 F           M             
##  7 Adelie  Torgersen        3625            32761 F           M             
##  8 Adelie  Torgersen        4675            38025 L           M             
##  9 Adelie  Torgersen        3475            37249 F           S             
## 10 Adelie  Torgersen        4250            36100 L           M             
## # ... with 334 more rows
…
サンプルを特定の変数の値ごとに分割したい時がある

例えば、オスのサンプルとメスのサンプルを分割する

filter関数を使ってもいいが、例えば雄雌それぞれのサンプルに同じ操作を適用したい場合などは、コードが冗長になる場合がある

split関数とpull関数を組み合わせて使うと、データフレームをリスト形式で分割できる

df_split <- palmerpenguins::penguins %>%
  select(species, island, sex) %>% # 表示の都合上列数を限定
  split(pull(., sex)) # 分割の基準にしたい変数を入力
print(df_split)

## $female
## # A tibble: 165 x 3
##    species island    sex   
##    <fct>   <fct>     <fct> 
##  1 Adelie  Torgersen female
##  2 Adelie  Torgersen female
##  3 Adelie  Torgersen female
##  4 Adelie  Torgersen female
##  5 Adelie  Torgersen female
##  6 Adelie  Torgersen female
##  7 Adelie  Torgersen female
##  8 Adelie  Torgersen female
##  9 Adelie  Biscoe    female
## 10 Adelie  Biscoe    female
## # ... with 155 more rows
## 
## $male
## # A tibble: 168 x 3
##    species island    sex  
##    <fct>   <fct>     <fct>
##  1 Adelie  Torgersen male 
##  2 Adelie  Torgersen male 
##  3 Adelie  Torgersen male 
##  4 Adelie  Torgersen male 
##  5 Adelie  Torgersen male 
##  6 Adelie  Torgersen male 
##  7 Adelie  Torgersen male 
##  8 Adelie  Biscoe    male 
##  9 Adelie  Biscoe    male 
## 10 Adelie  Biscoe    male 
## # ... with 158 more rows
…
